<svg width="29" height="28" viewBox="0 0 29 28" fill="none" xmlns="http://www.w3.org/2000/svg">
<g clip-path="url(#clip0)">
<path d="M28.2311 14.262C28.2311 13.1148 28.1375 12.2777 27.9351 11.4096H14.7739V16.5873H22.4993C22.3436 17.874 21.5025 19.8117 19.6334 21.1139L19.6072 21.2872L23.7685 24.4958L24.0568 24.5244C26.7046 22.0905 28.2311 18.5095 28.2311 14.262Z" fill="#4285F4"/>
<path d="M14.7736 27.9039C18.5584 27.9039 21.7357 26.6636 24.0565 24.5244L19.6331 21.1139C18.4494 21.9355 16.8607 22.509 14.7736 22.509C11.0667 22.509 7.9205 20.0753 6.79897 16.7113L6.63457 16.7252L2.30756 20.0582L2.25098 20.2148C4.55611 24.7723 9.29104 27.9039 14.7736 27.9039Z" fill="#34A853"/>
<path d="M6.79905 16.7113C6.50312 15.8432 6.33186 14.913 6.33186 13.9519C6.33186 12.9907 6.50312 12.0606 6.78348 11.1925L6.77564 11.0076L2.39441 7.62112L2.25106 7.68899C1.301 9.58027 0.755859 11.7041 0.755859 13.9519C0.755859 16.1997 1.301 18.3234 2.25106 20.2147L6.79905 16.7113Z" fill="#FBBC05"/>
<path d="M14.7736 5.39472C17.4058 5.39472 19.1814 6.52637 20.1938 7.47206L24.15 3.62751C21.7203 1.37971 18.5584 1.52588e-05 14.7736 1.52588e-05C9.29104 1.52588e-05 4.55611 3.13142 2.25098 7.68901L6.78339 11.1925C7.9205 7.82858 11.0667 5.39472 14.7736 5.39472Z" fill="#EB4335"/>
</g>
<defs>
<clipPath id="clip0">
<rect width="27.4909" height="28" fill="white" transform="translate(0.754395)"/>
</clipPath>
</defs>
</svg>
