<svg width="24" height="24" viewBox="0 0 24 24" fill="none" xmlns="http://www.w3.org/2000/svg">
<path fill-rule="evenodd" clip-rule="evenodd" d="M5.68123 4.08866C5.68123 5.25137 4.73867 6.19392 3.57597 6.19392C2.41326 6.19392 1.4707 5.25137 1.4707 4.08866C1.4707 2.92596 2.41326 1.9834 3.57597 1.9834C4.73867 1.9834 5.68123 2.92596 5.68123 4.08866ZM16.2075 8.29919C17.8826 8.29919 19.489 8.9646 20.6735 10.149C21.8579 11.3335 22.5233 12.9399 22.5233 14.615V21.9834H18.3128V14.615C18.3128 14.0566 18.091 13.5211 17.6962 13.1263C17.3014 12.7315 16.7659 12.5097 16.2075 12.5097C15.6492 12.5097 15.1137 12.7315 14.7189 13.1263C14.3241 13.5211 14.1023 14.0566 14.1023 14.615V21.9834H9.89176V14.615C9.89176 12.9399 10.5572 11.3335 11.7416 10.149C12.926 8.9646 14.5325 8.29919 16.2075 8.29919ZM5.68123 21.9834V9.35182H1.4707V21.9834H5.68123Z" fill="#161616"/>
<path d="M20.6735 10.149L21.027 9.79549L20.6735 10.149ZM22.5233 21.9834V22.4834C22.7995 22.4834 23.0233 22.2595 23.0233 21.9834H22.5233ZM18.3128 21.9834H17.8128C17.8128 22.2595 18.0367 22.4834 18.3128 22.4834V21.9834ZM14.7189 13.1263L15.0725 13.4799V13.4799L14.7189 13.1263ZM14.1023 21.9834V22.4834C14.3784 22.4834 14.6023 22.2595 14.6023 21.9834H14.1023ZM9.89176 21.9834H9.39176C9.39176 22.2595 9.61561 22.4834 9.89176 22.4834V21.9834ZM11.7416 10.149L12.0952 10.5026L11.7416 10.149ZM5.68123 9.35182H6.18123C6.18123 9.07568 5.95737 8.85182 5.68123 8.85182V9.35182ZM5.68123 21.9834V22.4834C5.95737 22.4834 6.18123 22.2595 6.18123 21.9834H5.68123ZM1.4707 9.35182V8.85182C1.19456 8.85182 0.970703 9.07568 0.970703 9.35182H1.4707ZM1.4707 21.9834H0.970703C0.970703 22.2595 1.19456 22.4834 1.4707 22.4834V21.9834ZM3.57597 6.69392C5.01481 6.69392 6.18123 5.52751 6.18123 4.08866H5.18123C5.18123 4.97522 4.46253 5.69392 3.57597 5.69392V6.69392ZM0.970703 4.08866C0.970703 5.52751 2.13712 6.69392 3.57597 6.69392V5.69392C2.6894 5.69392 1.9707 4.97522 1.9707 4.08866H0.970703ZM3.57597 1.4834C2.13712 1.4834 0.970703 2.64981 0.970703 4.08866H1.9707C1.9707 3.2021 2.6894 2.4834 3.57597 2.4834V1.4834ZM6.18123 4.08866C6.18123 2.64981 5.01481 1.4834 3.57597 1.4834V2.4834C4.46253 2.4834 5.18123 3.2021 5.18123 4.08866H6.18123ZM21.027 9.79549C19.7488 8.51728 18.0152 7.79919 16.2075 7.79919V8.79919C17.75 8.79919 19.2293 9.41192 20.3199 10.5026L21.027 9.79549ZM23.0233 14.615C23.0233 12.8073 22.3052 11.0737 21.027 9.79549L20.3199 10.5026C21.4106 11.5933 22.0233 13.0725 22.0233 14.615H23.0233ZM23.0233 21.9834V14.615H22.0233V21.9834H23.0233ZM18.3128 22.4834H22.5233V21.4834H18.3128V22.4834ZM17.8128 14.615V21.9834H18.8128V14.615H17.8128ZM17.3426 13.4799C17.6437 13.7809 17.8128 14.1892 17.8128 14.615H18.8128C18.8128 13.924 18.5383 13.2614 18.0497 12.7728L17.3426 13.4799ZM16.2075 13.0097C16.6333 13.0097 17.0416 13.1788 17.3426 13.4799L18.0497 12.7728C17.5612 12.2842 16.8985 12.0097 16.2075 12.0097V13.0097ZM15.0725 13.4799C15.3735 13.1788 15.7818 13.0097 16.2075 13.0097V12.0097C15.5166 12.0097 14.8539 12.2842 14.3653 12.7728L15.0725 13.4799ZM14.6023 14.615C14.6023 14.1892 14.7714 13.7809 15.0725 13.4799L14.3653 12.7728C13.8768 13.2614 13.6023 13.924 13.6023 14.615H14.6023ZM14.6023 21.9834V14.615H13.6023V21.9834H14.6023ZM9.89176 22.4834H14.1023V21.4834H9.89176V22.4834ZM9.39176 14.615V21.9834H10.3918V14.615H9.39176ZM11.3881 9.79549C10.1098 11.0737 9.39176 12.8073 9.39176 14.615H10.3918C10.3918 13.0725 11.0045 11.5933 12.0952 10.5026L11.3881 9.79549ZM16.2075 7.79919C14.3999 7.79919 12.6663 8.51728 11.3881 9.79549L12.0952 10.5026C13.1858 9.41192 14.6651 8.79919 16.2075 8.79919V7.79919ZM5.18123 9.35182V21.9834H6.18123V9.35182H5.18123ZM1.4707 9.85182H5.68123V8.85182H1.4707V9.85182ZM1.9707 21.9834V9.35182H0.970703V21.9834H1.9707ZM5.68123 21.4834H1.4707V22.4834H5.68123V21.4834Z" fill="#161616"/>
</svg>
