<svg width="48" height="48" viewBox="0 0 48 48" fill="none" xmlns="http://www.w3.org/2000/svg">
<circle cx="24" cy="24" r="24" fill="#EC1E24"/>
<path d="M37.4504 24.0001L17.2746 35.6486L17.2746 12.3516L37.4504 24.0001Z" fill="white"/>
</svg>
